Nom_vin;Nom_met;Catégorie;Temperature;Gout;Couleur_vin;Image
Côte de Nuits;Coq au vin;Plat;Chaud;Salé;Rouge;image/coqvin.jpeg
Mâcon;Coq au vin;Plat;Chaud;Salé;Blanc;image/coqvin.jpeg
Bourgogne;Coq au vin;Plat;Chaud;Salé;Rouge;image/coqvin.jpeg
Côte de Beaune;Coq au vin;Plat;Chaud;Salé;Rouge;image/coqvin.jpeg
Chambertin;Coq au vin;Plat;Chaud;Salé;Rouge;image/coqvin.jpeg
Abymes;Fondue savoyarde;Plat;Chaud;Salé;Blanc;image/fondue.jpeg
Vin d’Alsace;Fondue savoyarde;Plat;Chaud;Salé;Blanc;image/fondue.jpeg
Chignin;Fondue savoyarde;Plat;Chaud;Salé;Blanc;image/fondue.jpeg
Roussette;Fondue savoyarde;Plat;Chaud;Salé;Blanc;image/fondue.jpeg
Mondeuse;Fondue savoyarde;Plat;Chaud;Salé;Rouge;image/fondue.jpeg
Apremont;Fondue savoyarde;Plat;Chaud;Salé;Blanc;image/fondue.jpeg
Champagne;Tarte aux poires;Dessert;Froid;Sucré;Blanc;image/tartepoire.jpeg
Loupiac;Tarte aux poires;Dessert;Froid;Sucré;Blanc;image/tartepoire.jpeg
Vouvray;Tarte aux poires;Dessert;Froid;Sucré;Blanc;image/tartepoire.jpeg
Gewurztraminer;Tarte aux poires;Dessert;Froid;Sucré;Blanc;image/tartepoire.jpeg
Asti;Tarte aux poires;Dessert;Froid;Sucré;Blanc;image/tartepoire.jpeg
Muscadet sur lie;Huitres Claires;Entrée;Froid;Salé;Blanc;image/huitreclaire.jpeg
Riesling;Huitres Claires;Entrée;Froid;Salé;Blanc;image/huitreclaire.jpeg
Sauvignon;Huitres Claires;Entrée;Froid;Salé;Blanc;image/huitreclaire.jpeg
Sylvaner;Huitres Claires;Entrée;Froid;Salé;Blanc;image/huitreclaire.jpeg
Entre-deux-mers;Huitres Claires;Entrée;Froid;Salé;Blanc;image/huitreclaire.jpeg
Edelzwicker;Huitres Claires;Entrée;Froid;Salé;Blanc;image/huitreclaire.jpeg
Gros Plant;Huitres Claires;Entrée;Froid;Salé;Blanc;image/huitreclaire.jpeg
Bourgogne;Plateau de fromages;Dessert;Froid;Salé;Rouge;image/plateaufromage.jpeg
Beaune;Plateau de fromages;Dessert;Froid;Salé;Rouge;image/plateaufromage.jpeg
Bordeaux;Plateau de fromages;Dessert;Froid;Salé;Rouge;image/plateaufromage.jpeg
Moulin à vent;Plateau de fromages;Dessert;Froid;Salé;Rouge;image/plateaufromage.jpeg
Julienas;Plateau de fromages;Dessert;Froid;Salé;Rouge;image/plateaufromage.jpeg
Porto;Plateau de fromages;Dessert;Froid;Salé;Rouge;image/plateaufromage.jpeg
Mâcon;Plateau de fromages;Dessert;Froid;Salé;Blanc;image/plateaufromage.jpeg
Beaujolais Village;Plateau de fromages;Dessert;Froid;Salé;Rouge;image/plateaufromage.jpeg
Clairette de Die ;Cheescake au Chocolat;Dessert;Froid;Sucré;Blanc;image/cheesecake.jpeg
Riesling;Huitres;Entrée;Froid;Salé;Blanc;image/huitre.jpg
Muscadet sur lie;Huitres;Entrée;Froid;Salé;Blanc;image/huitre.jpg
Chablis;Huitres;Entrée;Froid;Salé;Blanc;image/huitre.jpg
Champagne;Huitres;Entrée;Froid;Salé;Blanc;image/huitre.jpg
Entre-deux-mers;Huitres;Entrée;Froid;Salé;Blanc;image/huitre.jpg
Vouvray;Tarte aux Abricots et Amandes;Dessert;Froid;Sucré;Blanc;image/tarteabricot.jpeg
Sauternes;Tarte aux Abricots et Amandes;Dessert;Froid;Sucré;Blanc;image/tarteabricot.jpeg
Muscat d’alsace;Tarte aux Abricots et Amandes;Dessert;Froid;Sucré;Blanc;image/tarteabricot.jpeg
Champagne rosé;Tarte aux Abricots et Amandes;Dessert;Froid;Sucré;Blanc;image/tarteabricot.jpeg
Asti;Tarte aux Abricots et Amandes;Dessert;Froid;Sucré;Blanc;image/tarteabricot.jpeg
Montbazillac;Poire au Chocolat et Amandes;Dessert;Froid;Sucré;Blanc;image/poirechocolat.jpeg
Sauternes;Poire au Chocolat et Amandes;Dessert;Froid;Sucré;Blanc;image/poirechocolat.jpeg
Loupiac;Poire au Chocolat et Amandes;Dessert;Froid;Sucré;Blanc;image/poirechocolat.jpeg
Champagne rosé;Poire au Chocolat et Amandes;Dessert;Froid;Sucré;Blanc;image/poirechocolat.jpeg
Champagne;Tarte Normande;Dessert;Froid;Sucré;Blanc;image/tartenormande.jpeg
Champagne;Tarte fine aux Bananes et Framboises;Dessert;Froid;Sucré;Blanc;image/tartebanane.jpeg
Maury;Gateau au chocolat;Dessert;Froid;Sucré;Rouge;image/gateauchocolat.jpeg
Rivesaltes Grenat;Gateau au chocolat;Dessert;Froid;Sucré;Rouge;image/gateauchocolat.jpeg
Muscat de Rivesaltes;Moelleux au chocolat;Dessert;Froid;Sucré;Blanc;image/moelleux.jpeg
Banyuls Ambré;Moelleux au chocolat;Dessert;Froid;Sucré;Rouge;image/moelleux.jpeg
Chambolle musigny;Moelleux au chocolat;Dessert;Froid;Sucré;Rouge;image/moelleux.jpeg
Banyuls Ambré;Tarte à la praline;Dessert;Froid;Sucré;Rouge;image/praline.jpeg
Banyuls Rimage;Tarte à la praline;Dessert;Froid;Sucré;Rouge;image/praline.jpeg
Maury;Fromages forts à pâtes persillées;Dessert;Froid;Salé;Rouge;image/fromagepers.jpeg
Banyuls;Fromages forts à pâtes persillées;Dessert;Froid;Salé;Rouge;image/fromagepers.jpeg
Riesling;Foie gras aux Raisins;Entrée;Froid;Salé;Blanc;image/foiegras.jpeg
Loupiac;Foie gras aux Raisins;Entrée;Froid;Salé;Blanc;image/foiegras.jpeg
Sauternes;Foie gras aux Raisins;Entrée;Froid;Salé;Blanc;image/foiegras.jpeg
Gewurztraminer;Foie gras aux Raisins;Entrée;Froid;Salé;Blanc;image/foiegras.jpeg
Fronton;Foie gras aux Raisins;Entrée;Froid;Salé;Rouge;image/foiegras.jpeg
Muscadet sur lie;Bouquets de Crevettes roses;Entrée;Froid;Salé;Blanc;image/crevette.jpeg
Saumur blanc;Bouquets de Crevettes roses;Entrée;Froid;Salé;Blanc;image/crevette.jpeg
Entre-deux-mers;Bouquets de Crevettes roses;Entrée;Froid;Salé;Blanc;image/crevette.jpeg
Ménetou Salon;Bouquets de Crevettes roses;Entrée;Froid;Salé;Rouge;image/crevette.jpeg
Touraine Sauvignon;Bouquets de Crevettes roses;Entrée;Froid;Salé;Rouge;image/crevette.jpeg
Riesling;Bouquets de Crevettes roses;Entrée;Froid;Salé;Blanc;image/crevette.jpeg
Listel blanc;Avocat au Crabe;Entrée;Froid;Salé;Blanc;image/avocat.jpeg
Pinot blanc;Avocat au Crabe;Entrée;Froid;Salé;Blanc;image/avocat.jpeg
Muscat sec;Avocat au Crabe;Entrée;Froid;Salé;Blanc;image/avocat.jpeg
Viognier;Avocat au Crabe;Entrée;Froid;Salé;Rouge;image/avocat.jpeg
Entre-deux-mers;Avocat au Crabe;Entrée;Froid;Salé;Blanc;image/avocat.jpeg
Coteaux d'Aix;Tarte Ratatouille aux Lardons;Entrée;Chaud;Salé;Rouge;image/ratatouille.jpeg
Chinon rosé;Tarte Ratatouille aux Lardons;Entrée;Chaud;Salé;Rouge;image/ratatouille.jpeg
Rosé de provence;Tarte Ratatouille aux Lardons;Entrée;Chaud;Salé;Rouge;image/ratatouille.jpeg
Blanquette de Limoux;Escargot de mer Romanesco;Entrée;Chaud;Salé;Blanc;image/romanesco.jpeg
Crémant d’Alsace;Escargot de mer Romanesco;Entrée;Chaud;Salé;Blanc;image/romanesco.jpeg
Crémant de Bourgogne;Escargot de mer Romanesco;Entrée;Chaud;Salé;Blanc;image/romanesco.jpeg
Sylvaner;Choucroute alsacienne;Plat;Chaud;Salé;Blanc;image/choucroute.jpeg
Pinot;Choucroute alsacienne;Plat;Chaud;Salé;Rouge;image/choucroute.jpeg
Riesling;Choucroute alsacienne;Plat;Chaud;Salé;Rouge;image/choucroute.jpeg
Chinon rosé;Civet de Lapin;Plat;Chaud;Salé;Rouge;image/civet.jpeg
Côte de Beaune;Civet de Lapin;Plat;Chaud;Salé;Rouge;image/civet.jpeg
Julienas;Civet de Lapin;Plat;Chaud;Salé;Rouge;image/civet.jpeg
Côtes du Roussillon;Civet de Lapin;Plat;Chaud;Salé;Rouge;image/civet.jpeg
Chinon rosé;Poulet rôti;Plat;Chaud;Salé;Rouge;image/poulet.jpeg
Bourgogne;Poulet rôti;Plat;Chaud;Salé;Rouge;image/poulet.jpeg
Vin d’Espagne;Couscous;Plat;Chaud;Salé;Rouge;image/couscous.jpeg
Bordeaux;Cassoulet;Plat;Chaud;Salé;Rouge;image/cassoulet.jpeg
Fronton;Cassoulet;Plat;Chaud;Salé;Rouge;image/cassoulet.jpeg
Vin de Savoie;Raclette;Plat;Chaud;Salé;Rouge;image/raclette.jpeg
Cahors;Chili con carne;Plat;Chaud;Salé;Rouge;image/chili.jpeg
Côte de Nuits;Magret de Canard;Plat;Chaud;Salé;Rouge;image/magret.jpeg
Saint Emilion;Magret de Canard;Plat;Chaud;Salé;Rouge;image/magret.jpeg
Rosé de provence;Magret de Canard;Plat;Chaud;Salé;Rouge;image/magret.jpeg
