[
  {
    "type": "Feature",
    "geometry": {
       "type": "Point",
       "coordinates":  [ -0.782266,45.272945 ]
    },
    "properties": {
    "Adresse":"Saint estephe",
    "region":"BORDEAUX RIVE GAUCHE",
    "DOMAINE_OU_MAISON":"Château Le Bosq",
    "APPELLATION_1":"Saint-Estèphe Cru Bourgeois",
    "APPELLATION_2":"",
    "APPELATION_3":"",
    "APPELATION_4":"",
    "APPELATION_5":"",
    "APPELATION_6":""
    }
  },
  {
    "type": "Feature",
    "geometry": {
       "type": "Point",
       "coordinates":  [ -0.773662,45.148599 ]
    },
    "properties": {
    "Adresse":"château Lagrange, 33250 SAINT JULIEN BEYCHEVELLE ",
    "region":" BORDEAUX RIVE GAUCHE",
    "DOMAINE_OU_MAISON":"Château Lagrange ",
    "APPELLATION_1":"Saint-Julien ",
    "APPELLATION_2":"",
    "APPELATION_3":"",
    "APPELATION_4":"",
    "APPELATION_5":"",
    "APPELATION_6":""
    }
  },
  {
    "type": "Feature",
    "geometry": {
       "type": "Point",
       "coordinates":  [ -0.744076,45.077218 ]
    },
    "properties": {
    "Adresse":"3 Route de Grand Poujeaux, 33480 Moulis-en-Médoc",
    "region":"BORDEAUX RIVE GAUCHE",
    "DOMAINE_OU_MAISON":"Château Branas Grand Poujeaux",
    "APPELLATION_1":"Moulis",
    "APPELLATION_2":"",
    "APPELATION_3":"",
    "APPELATION_4":"",
    "APPELATION_5":"",
    "APPELATION_6":""
    }
  },
  {
    "type": "Feature",
    "geometry": {
       "type": "Point",
       "coordinates":  [ -0.779241,45.151238 ]
    },
    "properties": {
    "Adresse":"Darrous, 33112 Saint-Laurent-Médoc",
    "region":"BORDEAUX RIVE GAUCHE",
    "DOMAINE_OU_MAISON":"Château Belgrave ",
    "APPELLATION_1":"Haut-Médoc 5ème Gd Cru Clasé",
    "APPELLATION_2":"",
    "APPELATION_3":"",
    "APPELATION_4":"",
    "APPELATION_5":"",
    "APPELATION_6":""
    }
  },
  {
    "type": "Feature",
    "geometry": {
       "type": "Point",
       "coordinates":  [ -0.840727,45.254068 ]
    },
    "properties": {
    "Adresse":"33180 Vertheuil",
    "region":"BORDEAUX RIVE GAUCHE",
    "DOMAINE_OU_MAISON":"Château Reysson ",
    "APPELLATION_1":"Haut-Médoc Cru Bourgeois",
    "APPELLATION_2":"",
    "APPELATION_3":"",
    "APPELATION_4":"",
    "APPELATION_5":"",
    "APPELATION_6":""
    }
  },
  {
    "type": "Feature",
    "geometry": {
       "type": "Point",
       "coordinates":  [ -0.584087,44.826528 ]
    },
    "properties": {
    "Adresse":"43 RUE D ARCACHON 33000 BORDEAUX",
    "region":"BORDEAUX RIVE GAUCHE",
    "DOMAINE_OU_MAISON":"Nektart Wine ",
    "APPELLATION_1":"Haut-Médoc",
    "APPELLATION_2":"",
    "APPELATION_3":"",
    "APPELATION_4":"",
    "APPELATION_5":"",
    "APPELATION_6":""
    }
  },
  {
    "type": "Feature",
    "geometry": {
       "type": "Point",
       "coordinates":  [ -0.539917,44.70892 ]
    },
    "properties": {
    "Adresse":"1 Chemin la Tour, 33650 Martillac",
    "region":"BORDEAUX RIVE GAUCHE",
    "DOMAINE_OU_MAISON":"Château La Garde",
    "APPELLATION_1":"Pessac-Léognan",
    "APPELLATION_2":"",
    "APPELATION_3":"",
    "APPELATION_4":"",
    "APPELATION_5":"",
    "APPELATION_6":""
    }
  },
  {
    "type": "Feature",
    "geometry": {
       "type": "Point",
       "coordinates":  [ -0.6077,44.941578 ]
    },
    "properties": {
    "Adresse":"35 Rue de Bordeaux Parempuyre – CS80004 33 295 Blanquefort Cedex",
    "region":"BORDEAUX RIVE GAUCHE",
    "DOMAINE_OU_MAISON":"Château Naudin Larchey",
    "APPELLATION_1":"Pessac-Léognan",
    "APPELLATION_2":"",
    "APPELATION_3":"",
    "APPELATION_4":"",
    "APPELATION_5":"",
    "APPELATION_6":""
    }
  },
  {
    "type": "Feature",
    "geometry": {
       "type": "Point",
       "coordinates":  [ -0.425956,44.686105 ]
    },
    "properties": {
    "Adresse":"4 rte Courneau, 33640 PORTETS  ",
    "region":"BORDEAUX RIVE GAUCHE",
    "DOMAINE_OU_MAISON":"Château Rahoul",
    "APPELLATION_1":"Graves",
    "APPELLATION_2":"",
    "APPELATION_3":"",
    "APPELATION_4":"",
    "APPELATION_5":"",
    "APPELATION_6":""
    }
  },
  {
    "type": "Feature",
    "geometry": {
       "type": "Point",
       "coordinates":  [ -0.425956,44.686105 ]
    },
    "properties": {
    "Adresse":"",
    "region":"BORDEAUX RIVE GAUCHE",
    "DOMAINE_OU_MAISON":"Château La Garance",
    "APPELLATION_1":"Graves",
    "APPELLATION_2":"",
    "APPELATION_3":"",
    "APPELATION_4":"",
    "APPELATION_5":"",
    "APPELATION_6":""
    }
  },
  {
    "type": "Feature",
    "geometry": {
       "type": "Point",
       "coordinates":  [ -0.318644,44.601645 ]
    },
    "properties": {
    "Adresse":"Pleyguemate, 33720 BARSAC ",
    "region":"BORDEAUX RIVE GAUCHE",
    "DOMAINE_OU_MAISON":"Château Roumieu",
    "APPELLATION_1":"Sauternes",
    "APPELLATION_2":"",
    "APPELATION_3":"",
    "APPELATION_4":"",
    "APPELATION_5":"",
    "APPELATION_6":""
    }
  },
  {
    "type": "Feature",
    "geometry": {
       "type": "Point",
       "coordinates":  [ -0.156044,44.893688 ]
    },
    "properties": {
    "Adresse":"33330 Saint-Émilion",
    "region":" BORDEAUX ET ENTRE DEUX MERS",
    "DOMAINE_OU_MAISON":" Dourthe n°1 ",
    "APPELLATION_1":" Bordeaux ",
    "APPELLATION_2":"",
    "APPELATION_3":"",
    "APPELATION_4":"",
    "APPELATION_5":"",
    "APPELATION_6":""
    }
  },
  {
    "type": "Feature",
    "geometry": {
       "type": "Point",
       "coordinates":  [ -0.39571,44.84927 ]
    },
    "properties": {
    "Adresse":"32 Avenue de la Tour, 33370 Sallebœuf",
    "region":" BORDEAUX ET ENTRE DEUX MERS",
    "DOMAINE_OU_MAISON":" Château Pey La Tour",
    "APPELLATION_1":"Bordeaux Supérieur",
    "APPELLATION_2":"",
    "APPELATION_3":"",
    "APPELATION_4":"",
    "APPELATION_5":"",
    "APPELATION_6":""
    }
  },
  {
    "type": "Feature",
    "geometry": {
       "type": "Point",
       "coordinates":  [ 0.045762,44.728066 ]
    },
    "properties": {
    "Adresse":"3 Castanet, 33790 Auriolles",
    "region":" BORDEAUX ET ENTRE DEUX MERS",
    "DOMAINE_OU_MAISON":" Château Castenet ",
    "APPELLATION_1":"Bordeaux ",
    "APPELLATION_2":"Entre-deux-mers",
    "APPELATION_3":"",
    "APPELATION_4":"",
    "APPELATION_5":"",
    "APPELATION_6":""
    }
  },
  {
    "type": "Feature",
    "geometry": {
       "type": "Point",
       "coordinates":  [ 0.129739,44.893065 ]
    },
    "properties": {
    "Adresse":"24230 MONTAZEAU",
    "region":" BORDEAUX RIVE DROITE",
    "DOMAINE_OU_MAISON":" Château Grimard ",
    "APPELLATION_1":"Côtes de Bourg",
    "APPELLATION_2":"",
    "APPELATION_3":"",
    "APPELATION_4":"",
    "APPELATION_5":"",
    "APPELATION_6":""
    }
  },
  {
    "type": "Feature",
    "geometry": {
       "type": "Point",
       "coordinates":  [ -0.296673,44.952174 ]
    },
    "properties": {
    "Adresse":"33126 Saint-Aignan",
    "region":" BORDEAUX RIVE DROITE",
    "DOMAINE_OU_MAISON":" Château Jeandeman",
    "APPELLATION_1":"Fronsac",
    "APPELLATION_2":"",
    "APPELATION_3":"",
    "APPELATION_4":"",
    "APPELATION_5":"",
    "APPELATION_6":""
    }
  },
  {
    "type": "Feature",
    "geometry": {
       "type": "Point",
       "coordinates":  [ -0.050795,45.004672 ]
    },
    "properties": {
    "Adresse":"13 Lieu Dit Laborde, 33230 Saint-Médard-de-Guizières",
    "region":" BORDEAUX RIVE DROITE",
    "DOMAINE_OU_MAISON":" Château Laborde",
    "APPELLATION_1":"Lalande-de-Pomerol",
    "APPELLATION_2":"",
    "APPELATION_3":"",
    "APPELATION_4":"",
    "APPELATION_5":"",
    "APPELATION_6":""
    }
  },
  {
    "type": "Feature",
    "geometry": {
       "type": "Point",
       "coordinates":  [ -0.186777,44.867241 ]
    },
    "properties": {
    "Adresse":"Saint-Sulpice-de-Faleyrens",
    "region":" BORDEAUX RIVE DROITE",
    "DOMAINE_OU_MAISON":" Château Haut Gros Caillou",
    "APPELLATION_1":"Saint-Emilion Grand Cru",
    "APPELLATION_2":"",
    "APPELATION_3":"",
    "APPELATION_4":"",
    "APPELATION_5":"",
    "APPELATION_6":""
    }
  },
  {
    "type": "Feature",
    "geometry": {
       "type": "Point",
       "coordinates":  [ -0.191711,44.909476 ]
    },
    "properties": {
    "Adresse":"ROUTE DE LIBOURNE, D243, 33330 Saint-Émilion",
    "region":" BORDEAUX RIVE DROITE",
    "DOMAINE_OU_MAISON":" Château Grand Barrail Lamarzelle Figeac ",
    "APPELLATION_1":"Saint-Emilion Grand Cru",
    "APPELLATION_2":"",
    "APPELATION_3":"",
    "APPELATION_4":"",
    "APPELATION_5":"",
    "APPELATION_6":""
    }
  },
  {
    "type": "Feature",
    "geometry": {
       "type": "Point",
       "coordinates":  [ -0.158545,44.85195 ]
    },
    "properties": {
    "Adresse":"33330 Saint-Émilion",
    "region":" BORDEAUX RIVE DROITE",
    "DOMAINE_OU_MAISON":" Château Teyssier",
    "APPELLATION_1":"Montagne-Saint-Emilion",
    "APPELLATION_2":"",
    "APPELATION_3":"",
    "APPELATION_4":"",
    "APPELATION_5":"",
    "APPELATION_6":""
    }
  },
  {
    "type": "Feature",
    "geometry": {
       "type": "Point",
       "coordinates":  [ -0.163907,44.928268 ]
    },
    "properties": {
    "Adresse":"33570 Montagne",
    "region":" BORDEAUX RIVE DROITE",
    "DOMAINE_OU_MAISON":" Château La Fleur Plaisance ",
    "APPELLATION_1":"Montagne-Saint-Emilion",
    "APPELLATION_2":"",
    "APPELATION_3":"",
    "APPELATION_4":"",
    "APPELATION_5":"",
    "APPELATION_6":""
    }
  },
  {
    "type": "Feature",
    "geometry": {
       "type": "Point",
       "coordinates":  [ -0.582831,44.851958 ]
    },
    "properties": {
    "Adresse":"33295 Blanquefort Cedex",
    "region":" BORDEAUX RIVE DROITE",
    "DOMAINE_OU_MAISON":" Château de Ricaud ",
    "APPELLATION_1":"Cadillac Côtes de Bordeaux ",
    "APPELLATION_2":"Loupiac",
    "APPELATION_3":"",
    "APPELATION_4":"",
    "APPELATION_5":"",
    "APPELATION_6":""
    }
  },
  {
    "type": "Feature",
    "geometry": {
       "type": "Point",
       "coordinates":  [ -0.035797,44.894707 ]
    },
    "properties": {
    "Adresse":"33350 GARDEGAN ET TOURTIRAC ",
    "region":" BORDEAUX RIVE DROITE",
    "DOMAINE_OU_MAISON":" Château Tourtirac",
    "APPELLATION_1":" Castillon Côtes de Bordeaux",
    "APPELLATION_2":"",
    "APPELATION_3":"",
    "APPELATION_4":"",
    "APPELATION_5":"",
    "APPELATION_6":""
    }
  },
  {
    "type": "Feature",
    "geometry": {
       "type": "Point",
       "coordinates":  [ 4.082584,49.152491 ]
    },
    "properties": {
    "Adresse":"1, rue Edmond Canard 51500 Ludes",
    "region":" CHAMPAGNE",
    "DOMAINE_OU_MAISON":" Champagne Canard Duchêne",
    "APPELLATION_1":"Champagne Brut ",
    "APPELLATION_2":"Blanc de Blancs",
    "APPELATION_3":"Blancs de Noirs",
    "APPELATION_4":"Millésimé",
    "APPELATION_5":"",
    "APPELATION_6":""
    }
  },
  {
    "type": "Feature",
    "geometry": {
       "type": "Point",
       "coordinates":  [ 4.077685,49.214523 ]
    },
    "properties": {
    "Adresse":"4, rue Joseph Cugnot - 51500 TAISSY",
    "region":" CHAMPAGNE",
    "DOMAINE_OU_MAISON":" Champagne Thiénot",
    "APPELLATION_1":"Champagne Brut ",
    "APPELLATION_2":"Blanc de Blancs",
    "APPELATION_3":"Blancs de Noirs",
    "APPELATION_4":"Millésimé",
    "APPELATION_5":"",
    "APPELATION_6":""
    }
  },
  {
    "type": "Feature",
    "geometry": {
       "type": "Point",
       "coordinates":  [ 7.415577,48.388236 ]
    },
    "properties": {
    "Adresse":"12 Rue Deharbe, 67140 Andlau",
    "region":" ALSACE",
    "DOMAINE_OU_MAISON":" Domaine Marc Kreydenweiss (Biodynamie)",
    "APPELLATION_1":"Alsace Riesling",
    "APPELLATION_2":"Alsace Pinot Noir",
    "APPELATION_3":"Alsace Pinot Gris",
    "APPELATION_4":"Gewurztraminer",
    "APPELATION_5":"Gewurztraminer Vendanges tardives",
    "APPELATION_6":""
    }
  },
  {
    "type": "Feature",
    "geometry": {
       "type": "Point",
       "coordinates":  [ 7.29484,48.02003 ]
    },
    "properties": {
    "Adresse":"36 Route du Vin, 68420 Obermorschwihr",
    "region":" ALSACE",
    "DOMAINE_OU_MAISON":" Doamine Hertzog",
    "APPELLATION_1":"Alsace Riesling",
    "APPELLATION_2":"Alsace Pinot Noir",
    "APPELATION_3":"Alsace Pinot Gris",
    "APPELATION_4":"Gewurztraminer",
    "APPELATION_5":"Gewurztraminer Vendanges tardives",
    "APPELATION_6":""
    }
  },
  {
    "type": "Feature",
    "geometry": {
       "type": "Point",
       "coordinates":  [ 4.840606,47.037636 ]
    },
    "properties": {
    "Adresse":"",
    "region":" BOURGOGNE",
    "DOMAINE_OU_MAISON":" Maison Louis Jadot",
    "APPELLATION_1":"Toutes les appellations sauf Saint Bris et Viré Cléssé ",
    "APPELLATION_2":"",
    "APPELATION_3":"",
    "APPELATION_4":"",
    "APPELATION_5":"",
    "APPELATION_6":""
    }
  },
  {
    "type": "Feature",
    "geometry": {
       "type": "Point",
       "coordinates":  [ 4.783982,46.295368 ]
    },
    "properties": {
    "Adresse":"33 Chemin de Buery, 71850 Charnay-lès-Mâcon",
    "region":" BOURGOGNE",
    "DOMAINE_OU_MAISON":" Maison Trénel (Bio)",
    "APPELLATION_1":"Mâcon",
    "APPELLATION_2":"Pouilly Vinzelles",
    "APPELATION_3":"Viré Cléssé ",
    "APPELATION_4":"Saint-Véran",
    "APPELATION_5":"",
    "APPELATION_6":""
    }
  },
  {
    "type": "Feature",
    "geometry": {
       "type": "Point",
       "coordinates":  [ 4.742575,46.280259 ]
    },
    "properties": {
    "Adresse":"71960 Fuissé",
    "region":" BOURGOGNE",
    "DOMAINE_OU_MAISON":" Domaine Ferret ",
    "APPELLATION_1":"Macôn-Fuissé",
    "APPELLATION_2":"Pouilly Fuissé",
    "APPELATION_3":"",
    "APPELATION_4":"",
    "APPELATION_5":"",
    "APPELATION_6":""
    }
  },
  {
    "type": "Feature",
    "geometry": {
       "type": "Point",
       "coordinates":  [ 4.683398,46.910528 ]
    },
    "properties": {
    "Adresse":"Santenay",
    "region":" BOURGOGNE",
    "DOMAINE_OU_MAISON":" Domaine Prieur Brunet",
    "APPELLATION_1":" Santenay ",
    "APPELLATION_2":"Meursault ",
    "APPELATION_3":"",
    "APPELATION_4":"",
    "APPELATION_5":"",
    "APPELATION_6":""
    }
  },
  {
    "type": "Feature",
    "geometry": {
       "type": "Point",
       "coordinates":  [ 4.844493,47.024556 ]
    },
    "properties": {
    "Adresse":"2,rue Colbert, 21200 BEAUNE",
    "region":" BOURGOGNE",
    "DOMAINE_OU_MAISON":" Domaine Croix des Perrières",
    "APPELLATION_1":"Bourgogne ",
    "APPELLATION_2":"",
    "APPELATION_3":"",
    "APPELATION_4":"",
    "APPELATION_5":"",
    "APPELATION_6":""
    }
  },
  {
    "type": "Feature",
    "geometry": {
       "type": "Point",
       "coordinates":  [ 4.743171,46.182871 ]
    },
    "properties": {
    "Adresse":"147 Les Jacques, 71570",
    "region":" BEAUJOLAIS",
    "DOMAINE_OU_MAISON":" Château des Jacques",
    "APPELLATION_1":"Fleurie",
    "APPELLATION_2":"Moulin-à-Vent",
    "APPELATION_3":"Morgon ",
    "APPELATION_4":"",
    "APPELATION_5":"",
    "APPELATION_6":""
    }
  },
  {
    "type": "Feature",
    "geometry": {
       "type": "Point",
       "coordinates":  [ 4.783982,46.295368 ]
    },
    "properties": {
    "Adresse":"33 Chemin de Buery, 71850 Charnay-lès-Mâcon",
    "region":" BEAUJOLAIS",
    "DOMAINE_OU_MAISON":" Maison Trénel ",
    "APPELLATION_1":"Juliénas ",
    "APPELLATION_2":"Saint-Amour",
    "APPELATION_3":"Chiroubles",
    "APPELATION_4":"Beaujolais Villages",
    "APPELATION_5":"",
    "APPELATION_6":""
    }
  },
  {
    "type": "Feature",
    "geometry": {
       "type": "Point",
       "coordinates":  [ 4.845704,45.072882 ]
    },
    "properties": {
    "Adresse":"22 Route de Larnage, 26600 Tain-l'Hermitage",
    "region":" VALLEE DU RHONE",
    "DOMAINE_OU_MAISON":" Cave de Tain (Bio)",
    "APPELLATION_1":"Crozes-Hermitage",
    "APPELLATION_2":"Cornas",
    "APPELATION_3":"Saint-Joseph",
    "APPELATION_4":"Hermitage",
    "APPELATION_5":"Saint-Péray",
    "APPELATION_6":""
    }
  },
  {
    "type": "Feature",
    "geometry": {
       "type": "Point",
       "coordinates":  [ 4.730081,45.414371 ]
    },
    "properties": {
    "Adresse":"Les Egrets 42410  Chavanay",
    "region":" VALLEE DU RHONE",
    "DOMAINE_OU_MAISON":" Domaine Les Terriens",
    "APPELLATION_1":"Côte-Rotie",
    "APPELLATION_2":"Condrieu ",
    "APPELATION_3":"Igp Collines Rhodaniennes",
    "APPELATION_4":"",
    "APPELATION_5":"",
    "APPELATION_6":""
    }
  },
  {
    "type": "Feature",
    "geometry": {
       "type": "Point",
       "coordinates":  [ 4.999944,44.166652 ]
    },
    "properties": {
    "Adresse":"201 Route des Princes d'Orange, 84190 Gigondas",
    "region":" VALLEE DU RHONE",
    "DOMAINE_OU_MAISON":" Domaine Pierre Amadieu",
    "APPELLATION_1":"Gigondas",
    "APPELLATION_2":"Vacqueyras",
    "APPELATION_3":"Cairanne",
    "APPELATION_4":"Vinsobres",
    "APPELATION_5":"Côtes du Rhône",
    "APPELATION_6":"Ventoux"
    }
  },
  {
    "type": "Feature",
    "geometry": {
       "type": "Point",
       "coordinates":  [ 4.834217,44.052199 ]
    },
    "properties": {
    "Adresse":"16 Chemin du Clos, 84230 Châteauneuf-du-Pape",
    "region":" VALLEE DU RHONE",
    "DOMAINE_OU_MAISON":" Domaine La Barroche",
    "APPELLATION_1":"Châteauneuf-du-Pape",
    "APPELLATION_2":"Vin de France",
    "APPELATION_3":"",
    "APPELATION_4":"",
    "APPELATION_5":"",
    "APPELATION_6":""
    }
  },
  {
    "type": "Feature",
    "geometry": {
       "type": "Point",
       "coordinates":  [ 5.018274,44.213731 ]
    },
    "properties": {
    "Adresse":"Quartier Eyguestre, 84110 Seguret",
    "region":" VALLEE DU RHONE",
    "DOMAINE_OU_MAISON":" Domaine Eyguestre",
    "APPELLATION_1":"Côtes du Rhône Villages Séguret",
    "APPELLATION_2":"",
    "APPELATION_3":"",
    "APPELATION_4":"",
    "APPELATION_5":"",
    "APPELATION_6":""
    }
  },
  {
    "type": "Feature",
    "geometry": {
       "type": "Point",
       "coordinates":  [ 4.343873,43.654549 ]
    },
    "properties": {
    "Adresse":"Route de Franquevaux, 30640 Beauvoisin",
    "region":" VALLEE DU RHONE",
    "DOMAINE_OU_MAISON":" Château Beaubois (Bio)",
    "APPELLATION_1":"Costières de Nîmes",
    "APPELLATION_2":"",
    "APPELATION_3":"",
    "APPELATION_4":"",
    "APPELATION_5":"",
    "APPELATION_6":""
    }
  },
  {
    "type": "Feature",
    "geometry": {
       "type": "Point",
       "coordinates":  [ 7.415577,48.388236 ]
    },
    "properties": {
    "Adresse":"12 Rue Deharbe, 67140 Andlau",
    "region":" VALLEE DU RHONE",
    "DOMAINE_OU_MAISON":" Domaine Marc Kreydenweiss (Biodynamie)",
    "APPELLATION_1":"Costières de Nîmes",
    "APPELLATION_2":"",
    "APPELATION_3":"",
    "APPELATION_4":"",
    "APPELATION_5":"",
    "APPELATION_6":""
    }
  },
  {
    "type": "Feature",
    "geometry": {
       "type": "Point",
       "coordinates":  [ 5.498467,43.781743 ]
    },
    "properties": {
    "Adresse":"Rue du Bout de Vière, 84240 Cabrières-d'Aigues",
    "region":" VALLEE DU RHONE",
    "DOMAINE_OU_MAISON":" Le temps des sages ",
    "APPELLATION_1":"Lubéron ",
    "APPELLATION_2":"Igp méditérrannée",
    "APPELATION_3":"",
    "APPELATION_4":"",
    "APPELATION_5":"",
    "APPELATION_6":""
    }
  },
  {
    "type": "Feature",
    "geometry": {
       "type": "Point",
       "coordinates":  [ 0.008966,47.231847 ]
    },
    "properties": {
    "Adresse":"22, route de Saumur 49730 PARNAY",
    "region":" LOIRE",
    "DOMAINE_OU_MAISON":" Château de Parnay (Bio)",
    "APPELLATION_1":"Saumur ",
    "APPELLATION_2":"Saumur-Champigny",
    "APPELATION_3":"Coteau de l'Aubance",
    "APPELATION_4":"Anjou Brissac",
    "APPELATION_5":"Crémant de loire",
    "APPELATION_6":""
    }
  },
  {
    "type": "Feature",
    "geometry": {
       "type": "Point",
       "coordinates":  [ 2.787434,47.314723 ]
    },
    "properties": {
    "Adresse":"1 Impasse de la Grand Vigne, 18300 Bue",
    "region":" LOIRE",
    "DOMAINE_OU_MAISON":" Domaine Cirotte",
    "APPELLATION_1":"Sancerre",
    "APPELLATION_2":"",
    "APPELATION_3":"",
    "APPELATION_4":"",
    "APPELATION_5":"",
    "APPELATION_6":""
    }
  },
  {
    "type": "Feature",
    "geometry": {
       "type": "Point",
       "coordinates":  [ 0.120407,47.283725 ]
    },
    "properties": {
    "Adresse":"Le Vigneau, 37140 Saint-Nicolas-de-Bourgueil",
    "region":" LOIRE",
    "DOMAINE_OU_MAISON":" Clos Vigneau ",
    "APPELLATION_1":"Saint-Nicolas-de-Bourgueil",
    "APPELLATION_2":"",
    "APPELATION_3":"",
    "APPELATION_4":"",
    "APPELATION_5":"",
    "APPELATION_6":""
    }
  },
  {
    "type": "Feature",
    "geometry": {
       "type": "Point",
       "coordinates":  [ 0.017765,47.228704 ]
    },
    "properties": {
    "Adresse":"Chemin des Hauts de Valbrun, 49730 Parnay",
    "region":" LOIRE",
    "DOMAINE_OU_MAISON":" Domaine de Rocheville",
    "APPELLATION_1":"Saumur",
    "APPELLATION_2":"Saumur-Champigny",
    "APPELATION_3":"",
    "APPELATION_4":"",
    "APPELATION_5":"",
    "APPELATION_6":""
    }
  },
  {
    "type": "Feature",
    "geometry": {
       "type": "Point",
       "coordinates":  [ -0.432778,47.253558 ]
    },
    "properties": {
    "Adresse":"49540 TERRANJOU",
    "region":" LOIRE",
    "DOMAINE_OU_MAISON":" Domaine de Pied Flond",
    "APPELLATION_1":"Cabernet d'Anjou",
    "APPELLATION_2":"Saumur Brut ",
    "APPELATION_3":"Coteau du Layon",
    "APPELATION_4":"Anjou",
    "APPELATION_5":"",
    "APPELATION_6":""
    }
  },
  {
    "type": "Feature",
    "geometry": {
       "type": "Point",
       "coordinates":  [ -0.627049,47.327502 ]
    },
    "properties": {
    "Adresse":"4 Route de Rochefort, 49750 Beaulieu-sur-Layon",
    "region":" LOIRE",
    "DOMAINE_OU_MAISON":" Château du Breuil ",
    "APPELLATION_1":"Savennières",
    "APPELLATION_2":"Coteau du Layon bio",
    "APPELATION_3":"Anjou ",
    "APPELATION_4":"Igp val de Loire",
    "APPELATION_5":"",
    "APPELATION_6":""
    }
  },
  {
    "type": "Feature",
    "geometry": {
       "type": "Point",
       "coordinates":  [ -1.406114,47.164445 ]
    },
    "properties": {
    "Adresse":"La Bretonnerie, 44690 La Haie-Fouassière",
    "region":" LOIRE",
    "DOMAINE_OU_MAISON":" Château de la Bretonnerie",
    "APPELLATION_1":"Muscadet Sèvre et Maine",
    "APPELLATION_2":"Muscadet ",
    "APPELATION_3":"",
    "APPELATION_4":"",
    "APPELATION_5":"",
    "APPELATION_6":""
    }
  },
  {
    "type": "Feature",
    "geometry": {
       "type": "Point",
       "coordinates":  [ 2.006926,46.996147 ]
    },
    "properties": {
    "Adresse":"3 chemin de l'Orme - Villiers les Roses 36260 Sainte-Lizaigne",
    "region":" LOIRE",
    "DOMAINE_OU_MAISON":" Domaine Mabillot",
    "APPELLATION_1":"Reuilly",
    "APPELLATION_2":"",
    "APPELATION_3":"",
    "APPELATION_4":"",
    "APPELATION_5":"",
    "APPELATION_6":""
    }
  },
  {
    "type": "Feature",
    "geometry": {
       "type": "Point",
       "coordinates":  [ 2.840326,47.307578 ]
    },
    "properties": {
    "Adresse":"7 Route de la Garenne – VERDIGNY – 18300 SANCERRE",
    "region":" LOIRE",
    "DOMAINE_OU_MAISON":" Domaine de Villebois",
    "APPELLATION_1":"Pouilly Fumé ",
    "APPELLATION_2":"Menetou-Salon",
    "APPELATION_3":"",
    "APPELATION_4":"",
    "APPELATION_5":"",
    "APPELATION_6":""
    }
  },
  {
    "type": "Feature",
    "geometry": {
       "type": "Point",
       "coordinates":  [ 1.013085,47.401892 ]
    },
    "properties": {
    "Adresse":"Rue grosses Pierre ZI Boitardière, 37400 Amboise",
    "region":" LOIRE",
    "DOMAINE_OU_MAISON":" Alphaloire",
    "APPELLATION_1":"Cour-Cheverny",
    "APPELLATION_2":"Cheverny",
    "APPELATION_3":"Pineau d'Aunis",
    "APPELATION_4":"Touraine",
    "APPELATION_5":"Crémant de loire",
    "APPELATION_6":""
    }
  },
  {
    "type": "Feature",
    "geometry": {
       "type": "Point",
       "coordinates":  [ 0.146898,47.204916 ]
    },
    "properties": {
    "Adresse":"74 Rue du Bourg, 37420 Savigny-en-Véron",
    "region":" LOIRE",
    "DOMAINE_OU_MAISON":" Domaine Raffault",
    "APPELLATION_1":"Chinon ",
    "APPELLATION_2":"",
    "APPELATION_3":"",
    "APPELATION_4":"",
    "APPELATION_5":"",
    "APPELATION_6":""
    }
  },
  {
    "type": "Feature",
    "geometry": {
       "type": "Point",
       "coordinates":  [ -1.187383,47.255797 ]
    },
    "properties": {
    "Adresse":"277 La Couperie, 49270 Orée-d'Anjou",
    "region":" LOIRE",
    "DOMAINE_OU_MAISON":" Vignoble Cogné ",
    "APPELLATION_1":"Igp Val de Loire",
    "APPELLATION_2":"",
    "APPELATION_3":"",
    "APPELATION_4":"",
    "APPELATION_5":"",
    "APPELATION_6":""
    }
  },
  {
    "type": "Feature",
    "geometry": {
       "type": "Point",
       "coordinates":  [ 6.227651,43.150386 ]
    },
    "properties": {
    "Adresse":"807 Route de Collobrières, 83250 La Londe-les-Maures",
    "region":" PROVENCE",
    "DOMAINE_OU_MAISON":" Château Les Valentines (Bio)",
    "APPELLATION_1":"Igp Méditérrannée",
    "APPELLATION_2":"Côtes de Provence",
    "APPELATION_3":"Côtes de Provence Bio ",
    "APPELATION_4":"Côtes de Provence Lalonde Bio",
    "APPELATION_5":"",
    "APPELATION_6":""
    }
  },
  {
    "type": "Feature",
    "geometry": {
       "type": "Point",
       "coordinates":  [ 5.700564,43.192302 ]
    },
    "properties": {
    "Adresse":"713 Chemin de la Barbarie, 83270 Saint-Cyr-sur-Mer",
    "region":" PROVENCE",
    "DOMAINE_OU_MAISON":" Domaine de la Chrétienne",
    "APPELLATION_1":"Bandol ",
    "APPELLATION_2":"Vin de France ",
    "APPELATION_3":"",
    "APPELATION_4":"",
    "APPELATION_5":"",
    "APPELATION_6":""
    }
  },
  {
    "type": "Feature",
    "geometry": {
       "type": "Point",
       "coordinates":  [ 6.466719,43.470773 ]
    },
    "properties": {
    "Adresse":"1195 Route des Nouradons, 83460 Les Arcs",
    "region":" PROVENCE",
    "DOMAINE_OU_MAISON":" Château Clarettes",
    "APPELLATION_1":"Côtes de Provence",
    "APPELLATION_2":"Coteaux Varois en Provence",
    "APPELATION_3":"",
    "APPELATION_4":"",
    "APPELATION_5":"",
    "APPELATION_6":""
    }
  },
  {
    "type": "Feature",
    "geometry": {
       "type": "Point",
       "coordinates":  [ 2.930013,43.421133 ]
    },
    "properties": {
    "Adresse":"34360 Saint-Chinian",
    "region":" LANGUEDOC",
    "DOMAINE_OU_MAISON":" Château La Dournie",
    "APPELLATION_1":"Saint-Chinian",
    "APPELLATION_2":"",
    "APPELATION_3":"",
    "APPELATION_4":"",
    "APPELATION_5":"",
    "APPELATION_6":""
    }
  },
  {
    "type": "Feature",
    "geometry": {
       "type": "Point",
       "coordinates":  [ 3.54498,43.488123 ]
    },
    "properties": {
    "Adresse":"34530 Montagnac",
    "region":" LANGUEDOC",
    "DOMAINE_OU_MAISON":" Mas du Novi (Bio)",
    "APPELLATION_1":"Grès de Montpellier",
    "APPELLATION_2":"Languedoc",
    "APPELATION_3":"",
    "APPELATION_4":"",
    "APPELATION_5":"",
    "APPELATION_6":""
    }
  },
  {
    "type": "Feature",
    "geometry": {
       "type": "Point",
       "coordinates":  [ 3.501993,43.648445 ]
    },
    "properties": {
    "Adresse":"Hameau de Cambous, 34725 Saint-André-de-Sangonis",
    "region":" LANGUEDOC",
    "DOMAINE_OU_MAISON":" Domaine La Croix Chaptal ",
    "APPELLATION_1":"Terrasses du Larzac ",
    "APPELLATION_2":"Languedoc",
    "APPELATION_3":"",
    "APPELATION_4":"",
    "APPELATION_5":"",
    "APPELATION_6":""
    }
  },
  {
    "type": "Feature",
    "geometry": {
       "type": "Point",
       "coordinates":  [ 2.723981,43.155518 ]
    },
    "properties": {
    "Adresse":"18 Avenue de Lézignan, 11200 Ferrals-les-Corbières",
    "region":" LANGUEDOC",
    "DOMAINE_OU_MAISON":" Château la Maylandie ",
    "APPELLATION_1":"Corbières",
    "APPELLATION_2":"",
    "APPELATION_3":"",
    "APPELATION_4":"",
    "APPELATION_5":"",
    "APPELATION_6":""
    }
  },
  {
    "type": "Feature",
    "geometry": {
       "type": "Point",
       "coordinates":  [ 2.66472,43.314653 ]
    },
    "properties": {
    "Adresse":"3 Route de Cesseras, 34210 Cesseras",
    "region":" LANGUEDOC",
    "DOMAINE_OU_MAISON":" Château de Fauzan ",
    "APPELLATION_1":"Minervois ",
    "APPELLATION_2":"Minervois La Livinière",
    "APPELATION_3":"",
    "APPELATION_4":"",
    "APPELATION_5":"",
    "APPELATION_6":""
    }
  },
  {
    "type": "Feature",
    "geometry": {
       "type": "Point",
       "coordinates":  [ 3.86458,43.766127 ]
    },
    "properties": {
    "Adresse":"140 Avenue des Coteaux de Montferrand, 34270 Saint-Mathieu-de-Tréviers",
    "region":" LANGUEDOC",
    "DOMAINE_OU_MAISON":" Les coteaux du pic ",
    "APPELLATION_1":"Pic-Saint-Loup",
    "APPELLATION_2":"",
    "APPELATION_3":"",
    "APPELATION_4":"",
    "APPELATION_5":"",
    "APPELATION_6":""
    }
  },
  {
    "type": "Feature",
    "geometry": {
       "type": "Point",
       "coordinates":  [ 3.970392,44.066863 ]
    },
    "properties": {
    "Adresse":"1820 Route de Saint-Jean du Gard, 30140 Anduze",
    "region":" LANGUEDOC",
    "DOMAINE_OU_MAISON":" Mas Seren (Bio)",
    "APPELLATION_1":"Igp Cévennes",
    "APPELLATION_2":"",
    "APPELATION_3":"",
    "APPELATION_4":"",
    "APPELATION_5":"",
    "APPELATION_6":""
    }
  },
  {
    "type": "Feature",
    "geometry": {
       "type": "Point",
       "coordinates":  [ 3.452386,43.613856 ]
    },
    "properties": {
    "Adresse":"Route de Canet, 34800 Clermont-l'Hérault",
    "region":" LANGUEDOC",
    "DOMAINE_OU_MAISON":" Domaine du Gourjo",
    "APPELLATION_1":"Igp Coteau Salagou ",
    "APPELLATION_2":"",
    "APPELATION_3":"",
    "APPELATION_4":"",
    "APPELATION_5":"",
    "APPELATION_6":""
    }
  },
  {
    "type": "Feature",
    "geometry": {
       "type": "Point",
       "coordinates":  [ 2.064131,48.689445 ]
    },
    "properties": {
    "Adresse":"102 Route de Limours, 78470 Saint-Rémy-lès-Chevreuse",
    "region":" LANGUEDOC",
    "DOMAINE_OU_MAISON":" Domaine Saint-Paul ",
    "APPELLATION_1":"Igp Pays d'Oc",
    "APPELLATION_2":"",
    "APPELATION_3":"",
    "APPELATION_4":"",
    "APPELATION_5":"",
    "APPELATION_6":""
    }
  },
  {
    "type": "Feature",
    "geometry": {
       "type": "Point",
       "coordinates":  [ 4.838216,44.048882 ]
    },
    "properties": {
    "Adresse":"Route de Sorgues BP58 84232 Châteauneuf-du-pape",
    "region":" ROUSSILLON",
    "DOMAINE_OU_MAISON":" Domaine Pietri Geraud",
    "APPELLATION_1":"Collioure",
    "APPELLATION_2":"Banuyls",
    "APPELATION_3":"",
    "APPELATION_4":"",
    "APPELATION_5":"",
    "APPELATION_6":""
    }
  },
  {
    "type": "Feature",
    "geometry": {
       "type": "Point",
       "coordinates":  [ 3.009888,42.706334 ]
    },
    "properties": {
    "Adresse":"Route de saint-Nazaire, Mas de Rey, 66140 Canet-en-Roussillon",
    "region":" ROUSSILLON",
    "DOMAINE_OU_MAISON":" Château de Rey",
    "APPELLATION_1":"Côtes du Roussillon",
    "APPELLATION_2":"Igp Côtes Catalanes",
    "APPELATION_3":"",
    "APPELATION_4":"",
    "APPELATION_5":"",
    "APPELATION_6":""
    }
  },
  {
    "type": "Feature",
    "geometry": {
       "type": "Point",
       "coordinates":  [ 2.949599,42.637737 ]
    },
    "properties": {
    "Adresse":"Route de Villeneuve, 66200 Montescot",
    "region":" ROUSSILLON",
    "DOMAINE_OU_MAISON":" Château de l'Ou (Bio)",
    "APPELLATION_1":"Côtes du Roussillon",
    "APPELLATION_2":"Igp Côtes Catalanes",
    "APPELATION_3":"",
    "APPELATION_4":"",
    "APPELATION_5":"",
    "APPELATION_6":""
    }
  },
  {
    "type": "Feature",
    "geometry": {
       "type": "Point",
       "coordinates":  [ 2.213077,43.05529 ]
    },
    "properties": {
    "Adresse":"Route de Carcassonne, 11300 Limoux",
    "region":" ROUSSILLON",
    "DOMAINE_OU_MAISON":" Maison Antech ",
    "APPELLATION_1":"Crémant de Limoux ",
    "APPELLATION_2":"",
    "APPELATION_3":"",
    "APPELATION_4":"",
    "APPELATION_5":"",
    "APPELATION_6":""
    }
  },
  {
    "type": "Feature",
    "geometry": {
       "type": "Point",
       "coordinates":  [ 1.551395,43.665566 ]
    },
    "properties": {
    "Adresse":"4 Route de Beaupuy 31180 Castelmaurou",
    "region":" ROUSSILLON",
    "DOMAINE_OU_MAISON":" Le manoir des Schistes",
    "APPELLATION_1":"Maury ",
    "APPELLATION_2":"",
    "APPELATION_3":"",
    "APPELATION_4":"",
    "APPELATION_5":"",
    "APPELATION_6":""
    }
  },
  {
    "type": "Feature",
    "geometry": {
       "type": "Point",
       "coordinates":  [ 3.286187,46.367574 ]
    },
    "properties": {
    "Adresse":"7 Route du Bourbonnais, 03500 Monétay-sur-Allier",
    "region":" AUVERGNE",
    "DOMAINE_OU_MAISON":" Terres de Roa (Bio)",
    "APPELLATION_1":"Saint-Pourçain",
    "APPELLATION_2":"Vin de France",
    "APPELATION_3":"",
    "APPELATION_4":"",
    "APPELATION_5":"",
    "APPELATION_6":""
    }
  },
  {
    "type": "Feature",
    "geometry": {
       "type": "Point",
       "coordinates":  [ 3.077905,45.830153 ]
    },
    "properties": {
    "Adresse":"12 rue de la Tour 63112 Blanzat",
    "region":" AUVERGNE",
    "DOMAINE_OU_MAISON":" Domaine Stéphane Bonjean",
    "APPELLATION_1":"Côtes d'Auvergne Châteaugay",
    "APPELLATION_2":"Côtes d'Auvergne",
    "APPELATION_3":"Igp Puy de Dôme",
    "APPELATION_4":"",
    "APPELATION_5":"",
    "APPELATION_6":""
    }
  },
  {
    "type": "Feature",
    "geometry": {
       "type": "Point",
       "coordinates":  [ 3.126229,45.686536 ]
    },
    "properties": {
    "Adresse":"10 rue Néraud, 63450 LE CREST",
    "region":" AUVERGNE",
    "DOMAINE_OU_MAISON":" Domaine de la Tour de Pierre",
    "APPELLATION_1":"Côtes d'Auvergne Corent ",
    "APPELLATION_2":"Côtes d'Auvergne",
    "APPELATION_3":"Igp Puy de Dôme",
    "APPELATION_4":"",
    "APPELATION_5":"",
    "APPELATION_6":""
    }
  },
  {
    "type": "Feature",
    "geometry": {
       "type": "Point",
       "coordinates":  [ 3.183318,45.460517 ]
    },
    "properties": {
    "Adresse":"Route de dauzat, 63340 Boudes",
    "region":" AUVERGNE",
    "DOMAINE_OU_MAISON":" Cave Pélissier",
    "APPELLATION_1":"Côtes d'Auvergne Boudes ",
    "APPELLATION_2":"Côtes d'Auvergne",
    "APPELATION_3":"Igp Puy de Dôme",
    "APPELATION_4":"",
    "APPELATION_5":"",
    "APPELATION_6":""
    }
  },
  {
    "type": "Feature",
    "geometry": {
       "type": "Point",
       "coordinates":  [ 0.432473,43.983723 ]
    },
    "properties": {
    "Adresse":"Domaine, 32100 Condom",
    "region":" SUD-OUEST",
    "DOMAINE_OU_MAISON":" Château de Gensac",
    "APPELLATION_1":"Igp Gers",
    "APPELLATION_2":"Armagnac",
    "APPELATION_3":"",
    "APPELATION_4":"",
    "APPELATION_5":"",
    "APPELATION_6":""
    }
  },
  {
    "type": "Feature",
    "geometry": {
       "type": "Point",
       "coordinates":  [ -0.127172,43.915209 ]
    },
    "properties": {
    "Adresse":"Lieu-dit de Papolle, 32240 Mauléon-d'Armagnac",
    "region":" SUD-OUEST",
    "DOMAINE_OU_MAISON":" Domaine Papolle",
    "APPELLATION_1":"Igp Côtes de Gascogne ",
    "APPELLATION_2":"",
    "APPELATION_3":"",
    "APPELATION_4":"",
    "APPELATION_5":"",
    "APPELATION_6":""
    }
  },
  {
    "type": "Feature",
    "geometry": {
       "type": "Point",
       "coordinates":  [ -0.127642,43.60085 ]
    },
    "properties": {
    "Adresse":"Laouliérat, Route de Maumusson, 32400 Viella",
    "region":" SUD-OUEST",
    "DOMAINE_OU_MAISON":" Château Viella",
    "APPELLATION_1":"Madiran",
    "APPELLATION_2":"",
    "APPELATION_3":"",
    "APPELATION_4":"",
    "APPELATION_5":"",
    "APPELATION_6":""
    }
  },
  {
    "type": "Feature",
    "geometry": {
       "type": "Point",
       "coordinates":  [ 1.872981,43.853758 ]
    },
    "properties": {
    "Adresse":"807 Jauret, 81600 Montans",
    "region":" SUD-OUEST",
    "DOMAINE_OU_MAISON":" Domaine Carcenac ",
    "APPELLATION_1":"Gaillac",
    "APPELLATION_2":"",
    "APPELATION_3":"",
    "APPELATION_4":"",
    "APPELATION_5":"",
    "APPELATION_6":""
    }
  },
  {
    "type": "Feature",
    "geometry": {
       "type": "Point",
       "coordinates":  [ 2.343453,48.891158 ]
    },
    "properties": {
    "Adresse":"103 Rue Marcadet, 75018 Paris",
    "region":" SUD-OUEST",
    "DOMAINE_OU_MAISON":" Château des Lys ",
    "APPELLATION_1":"Pécharmant",
    "APPELLATION_2":"",
    "APPELATION_3":"",
    "APPELATION_4":"",
    "APPELATION_5":"",
    "APPELATION_6":""
    }
  },
  {
    "type": "Feature",
    "geometry": {
       "type": "Point",
       "coordinates":  [ 4.867962,45.098634 ]
    },
    "properties": {
    "Adresse":"510 La Croix, 26600 Larnage",
    "region":" SUD-OUEST",
    "DOMAINE_OU_MAISON":" Domaine de la Belle",
    "APPELLATION_1":"Côtes du Duras",
    "APPELLATION_2":"",
    "APPELATION_3":"",
    "APPELATION_4":"",
    "APPELATION_5":"",
    "APPELATION_6":""
    }
  },
  {
    "type": "Feature",
    "geometry": {
       "type": "Point",
       "coordinates":  [ 1.569893,43.285621 ]
    },
    "properties": {
    "Adresse":"900 Chemin du Beyssac, 31550 Cintegabelle",
    "region":" SUD-OUEST",
    "DOMAINE_OU_MAISON":" Domaine de Beyssac ",
    "APPELLATION_1":"Côtes du Marmandais",
    "APPELLATION_2":"",
    "APPELATION_3":"",
    "APPELATION_4":"",
    "APPELATION_5":"",
    "APPELATION_6":""
    }
  },
  {
    "type": "Feature",
    "geometry": {
       "type": "Point",
       "coordinates":  [ 1.416338,43.869224 ]
    },
    "properties": {
    "Adresse":"2250 Route de Nohic, 31620 Fronton",
    "region":" SUD-OUEST",
    "DOMAINE_OU_MAISON":" Château Laurou ",
    "APPELLATION_1":"Fronton",
    "APPELLATION_2":"",
    "APPELATION_3":"",
    "APPELATION_4":"",
    "APPELATION_5":"",
    "APPELATION_6":""
    }
  }
]
